"","ID","number","Loop","setpoint","Perturbation","Replicate","FL1-A","D1","D2"
"1","2-B1","01-","Open",4,0,"a",111988.463843954,0.016,0.004
"2","2-C1","01-","Open",4,0,"b",108158.125200031,0.016,0.004
"3","2-D1","01-","Open",4,0,"c",138995.884843858,0.016,0.004
"4","2-E1","01-","Open",4,0.03,"a",37425.9688414752,0.016,0.004
"5","2-F1","01-","Open",4,0.03,"b",35724.8320847032,0.016,0.004
"6","2-G1","01-","Open",4,0.03,"c",33888.4248242383,0.016,0.004
"7","2-B2","02-","Open",2,0,"a",86030.5918543415,0.008,0.004
"8","2-C2","02-","Open",2,0,"b",75508.5209691418,0.008,0.004
"9","2-D2","02-","Open",2,0,"c",89425.1782667217,0.008,0.004
"10","2-E2","02-","Open",2,0.03,"a",35187.1745536878,0.008,0.004
"11","2-F2","02-","Open",2,0.03,"b",33229.5005299661,0.008,0.004
"12","2-G2","02-","Open",2,0.03,"c",34973.7765440812,0.008,0.004
"13","2-B3","03-","Open",1,0,"a",32705.1164988266,0.004,0.004
"14","2-C3","03-","Open",1,0,"b",38336.2911808336,0.004,0.004
"15","2-D3","03-","Open",1,0,"c",42332.3782199328,0.004,0.004
"16","2-E3","03-","Open",1,0.03,"a",25522.1656570122,0.004,0.004
"17","2-F3","03-","Open",1,0.03,"b",20356.6053706916,0.004,0.004
"18","2-G3","03-","Open",1,0.03,"c",20500.9343051885,0.004,0.004
"19","2-B4","04-","Open",0.5,0,"a",23473.7708216012,0.002,0.004
"20","2-C4","04-","Open",0.5,0,"b",25280.694254133,0.002,0.004
"21","2-D4","04-","Open",0.5,0,"c",29034.362644786,0.002,0.004
"22","2-E4","04-","Open",0.5,0.03,"a",16298.2652108832,0.002,0.004
"23","2-F4","04-","Open",0.5,0.03,"b",17062.071311784,0.002,0.004
"24","2-G4","04-","Open",0.5,0.03,"c",17463.3935016755,0.002,0.004
"25","2-B5","05-","Open",0.25,0,"a",16800.3851849493,0.001,0.004
"26","2-C5","05-","Open",0.25,0,"b",12684.3569207043,0.001,0.004
"27","2-D5","05-","Open",0.25,0,"c",14755.8912703107,0.001,0.004
"28","2-E5","05-","Open",0.25,0.03,"a",10945.1638675978,0.001,0.004
"29","2-F5","05-","Open",0.25,0.03,"b",10894.4408836162,0.001,0.004
"30","2-G5","05-","Open",0.25,0.03,"c",12156.4792847312,0.001,0.004
"31","2-B6","06-","Open",0.125,0,"a",9103.23487594414,5e-04,0.004
"32","2-C6","06-","Open",0.125,0,"b",7559.1075265067,5e-04,0.004
"33","2-D6","06-","Open",0.125,0,"c",9337.69298212253,5e-04,0.004
"34","2-E6","06-","Open",0.125,0.03,"a",7635.91300287743,5e-04,0.004
"35","2-F6","06-","Open",0.125,0.03,"b",6663.11993778113,5e-04,0.004
"36","2-G6","06-","Open",0.125,0.03,"c",7852.05638066045,5e-04,0.004
"37","3-B2","07-","Open",0.0625,0,"a",6319.65491151955,0.00025,0.004
"38","3-C2","07-","Open",0.0625,0,"b",4987.19307402702,0.00025,0.004
"39","3-D2","07-","Open",0.0625,0,"c",4795.37080594919,0.00025,0.004
"40","3-E2","07-","Open",0.0625,0.03,"a",4339.53517727647,0.00025,0.004
"41","3-F2","07-","Open",0.0625,0.03,"b",4061.28991437265,0.00025,0.004
"42","3-G2","07-","Open",0.0625,0.03,"c",4422.57360555959,0.00025,0.004
"43","2-B7","08-","Closed",4,0,"a",55589.1272900181,0.016,0.004
"44","2-C7","08-","Closed",4,0,"b",59030.0917226139,0.016,0.004
"45","2-D7","08-","Closed",4,0,"c",52746.2258004681,0.016,0.004
"46","2-E7","08-","Closed",4,0.03,"a",37255.569965463,0.016,0.004
"47","2-F7","08-","Closed",4,0.03,"b",35270.046931633,0.016,0.004
"48","2-G7","08-","Closed",4,0.03,"c",37928.2728401892,0.016,0.004
"49","2-B8","09-","Closed",2,0,"a",24271.2837438557,0.008,0.004
"50","2-C8","09-","Closed",2,0,"b",22161.8555005031,0.008,0.004
"51","2-D8","09-","Closed",2,0,"c",24627.1014685005,0.008,0.004
"52","2-E8","09-","Closed",2,0.03,"a",19324.9870370624,0.008,0.004
"53","2-F8","09-","Closed",2,0.03,"b",18535.4247131,0.008,0.004
"54","2-G8","09-","Closed",2,0.03,"c",17649.0134055521,0.008,0.004
"55","2-B9","10-","Closed",1,0,"a",9735.11786896934,0.004,0.004
"56","2-C9","10-","Closed",1,0,"b",10191.2484368344,0.004,0.004
"57","2-D9","10-","Closed",1,0,"c",9845.41421113404,0.004,0.004
"58","2-E9","10-","Closed",1,0.03,"a",9072.05838558924,0.004,0.004
"59","2-F9","10-","Closed",1,0.03,"b",11098.7227554388,0.004,0.004
"60","2-G9","10-","Closed",1,0.03,"c",10148.5809667698,0.004,0.004
"61","2-B10","11-","Closed",0.5,0,"a",6354.51012661057,0.002,0.004
"62","2-C10","11-","Closed",0.5,0,"b",5666.98618332643,0.002,0.004
"63","2-D10","11-","Closed",0.5,0,"c",5571.31129432408,0.002,0.004
"64","2-E10","11-","Closed",0.5,0.03,"a",6987.8745740399,0.002,0.004
"65","2-F10","11-","Closed",0.5,0.03,"b",6322.96098639162,0.002,0.004
"66","2-G10","11-","Closed",0.5,0.03,"c",5975.50084600933,0.002,0.004
"67","2-B11","12-","Closed",0.25,0,"a",4198.65532292546,0.001,0.004
"68","2-C11","12-","Closed",0.25,0,"b",4518.95671304695,0.001,0.004
"69","2-D11","12-","Closed",0.25,0,"c",4257.49672723907,0.001,0.004
"70","2-E11","12-","Closed",0.25,0.03,"a",4221.22509765625,0.001,0.004
"71","2-F11","12-","Closed",0.25,0.03,"b",5177.94441378383,0.001,0.004
"72","2-G11","12-","Closed",0.25,0.03,"c",4111.96511115456,0.001,0.004
"73","2-B12","13-","Closed",0.125,0,"a",3619.62760831204,5e-04,0.004
"74","2-C12","13-","Closed",0.125,0,"b",4312.75940203923,5e-04,0.004
"75","2-D12","13-","Closed",0.125,0,"c",3526.9540020752,5e-04,0.004
"76","2-E12","13-","Closed",0.125,0.03,"a",3517.59936369406,5e-04,0.004
"77","2-F12","13-","Closed",0.125,0.03,"b",3995.45155896257,5e-04,0.004
"78","2-G12","13-","Closed",0.125,0.03,"c",3232.56298471426,5e-04,0.004
"79","3-B3","14-","Closed",0.0625,0,"a",2975.14014990005,0.00025,0.004
"80","3-C3","14-","Closed",0.0625,0,"b",2270.29386602664,0.00025,0.004
"81","3-D3","14-","Closed",0.0625,0,"c",2234.60078239441,0.00025,0.004
"82","3-E3","14-","Closed",0.0625,0.03,"a",2395.12505294616,0.00025,0.004
"83","3-F3","14-","Closed",0.0625,0.03,"b",2573.46674662745,0.00025,0.004
"84","3-G3","14-","Closed",0.0625,0.03,"c",2594.73319927015,0.00025,0.004
"85","3-B4","15-","Open (EF1a)",4,0,"a",103212.334527972,0.016,0.00025
"86","3-C4","15-","Open (EF1a)",4,0,"b",108352.930094706,0.016,0.00025
"87","3-D4","15-","Open (EF1a)",4,0,"c",99355.6902056806,0.016,0.00025
"88","3-E4","15-","Open (EF1a)",4,0.03,"a",42363.9212391337,0.016,0.00025
"89","3-F4","15-","Open (EF1a)",4,0.03,"b",47307.3614320955,0.016,0.00025
"90","3-G4","15-","Open (EF1a)",4,0.03,"c",48087.622228406,0.016,0.00025
"91","3-B5","16-","Open (EF1a)",2,0,"a",66231.9922042332,0.008,0.00025
"92","3-C5","16-","Open (EF1a)",2,0,"b",61709.8205240636,0.008,0.00025
"93","3-D5","16-","Open (EF1a)",2,0,"c",69236.0429271715,0.008,0.00025
"94","3-E5","16-","Open (EF1a)",2,0.03,"a",52644.2004826093,0.008,0.00025
"95","3-F5","16-","Open (EF1a)",2,0.03,"b",43773.5287316875,0.008,0.00025
"96","3-G5","16-","Open (EF1a)",2,0.03,"c",41354.1199745228,0.008,0.00025
"97","3-B6","17-","Open (EF1a)",1,0,"a",49572.9894862869,0.004,0.00025
"98","3-C6","17-","Open (EF1a)",1,0,"b",38784.5877141364,0.004,0.00025
"99","3-D6","17-","Open (EF1a)",1,0,"c",43391.930070301,0.004,0.00025
"100","3-E6","17-","Open (EF1a)",1,0.03,"a",35237.5902832402,0.004,0.00025
"101","3-F6","17-","Open (EF1a)",1,0.03,"b",33568.5450487639,0.004,0.00025
"102","3-G6","17-","Open (EF1a)",1,0.03,"c",31587.0508836239,0.004,0.00025
"103","3-B7","19-","Open (EF1a)",0.5,0,"a",26164.7100596379,0.002,0.00025
"104","3-B8","19-","Open (EF1a)",0.25,0,"a",13684.777766871,0.001,0.00025
"105","3-C7","19-","Open (EF1a)",0.5,0,"b",23745.3509842722,0.002,0.00025
"106","3-C8","19-","Open (EF1a)",0.25,0,"b",9304.8790763282,0.001,0.00025
"107","3-D7","19-","Open (EF1a)",0.5,0,"c",22846.4566453574,0.002,0.00025
"108","3-D8","19-","Open (EF1a)",0.25,0,"c",15183.9986349077,0.001,0.00025
"109","3-E7","19-","Open (EF1a)",0.5,0.03,"a",16834.0796133118,0.002,0.00025
"110","3-E8","19-","Open (EF1a)",0.25,0.03,"a",11159.7096255524,0.001,0.00025
"111","3-F7","19-","Open (EF1a)",0.5,0.03,"b",18570.6478847586,0.002,0.00025
"112","3-F8","19-","Open (EF1a)",0.25,0.03,"b",9990.04611129761,0.001,0.00025
"113","3-G7","19-","Open (EF1a)",0.5,0.03,"c",19235.2706008116,0.002,0.00025
"114","3-G8","19-","Open (EF1a)",0.25,0.03,"c",10387.2193954487,0.001,0.00025
"115","3-B9","20-","Open (EF1a)",0.125,0,"a",7278.33974898489,5e-04,0.00025
"116","3-C9","20-","Open (EF1a)",0.125,0,"b",6498.81467235332,5e-04,0.00025
"117","3-D9","20-","Open (EF1a)",0.125,0,"c",7293.37608225441,5e-04,0.00025
"118","3-E9","20-","Open (EF1a)",0.125,0.03,"a",5109.43343505859,5e-04,0.00025
"119","3-F9","20-","Open (EF1a)",0.125,0.03,"b",4855.79323412024,5e-04,0.00025
"120","3-G9","20-","Open (EF1a)",0.125,0.03,"c",5988.04976048963,5e-04,0.00025
"121","3-B10","21-","Open (EF1a)",0.0625,0,"a",4309.10731858474,0.00025,0.00025
"122","3-C10","21-","Open (EF1a)",0.0625,0,"b",4653.0017732508,0.00025,0.00025
"123","3-D10","21-","Open (EF1a)",0.0625,0,"c",3509.74444354022,0.00025,0.00025
"124","3-E10","21-","Open (EF1a)",0.0625,0.03,"a",3336.44116510129,0.00025,0.00025
"125","3-F10","21-","Open (EF1a)",0.0625,0.03,"b",3697.92644305269,0.00025,0.00025
"126","3-G10","21-","Open (EF1a)",0.0625,0.03,"c",2679.48965938173,0.00025,0.00025
