"","Position","number","Loop","setpoint","Perturbation","Replicate","P feedback","FL1-A","D1","D2"
"1","1-B1","01-","Open",1,0,"a","No",131684.980300625,0.004,0.004
"2","1-C1","01-","Open",1,0,"b","No",134520.333236551,0.004,0.004
"3","1-D1","01-","Open",1,0,"c","No",116820.071407222,0.004,0.004
"4","1-E1","01-","Open",1,0.03,"a","No",63707.7229720406,0.004,0.004
"5","1-F1","01-","Open",1,0.03,"b","No",64314.3084697098,0.004,0.004
"6","1-G1","01-","Open",1,0.03,"c","No",61497.1078382871,0.004,0.004
"7","1-B2","02-","Open",1,0,"a","Yes",68396.7069094811,0.004,0.004
"8","1-C2","02-","Open",1,0,"b","Yes",76720.050910766,0.004,0.004
"9","1-D2","02-","Open",1,0,"c","Yes",82678.6468308029,0.004,0.004
"10","1-E2","02-","Open",1,0.03,"a","Yes",56256.0648567581,0.004,0.004
"11","1-F2","02-","Open",1,0.03,"b","Yes",61030.2029556552,0.004,0.004
"12","1-G2","02-","Open",1,0.03,"c","Yes",51846.930131205,0.004,0.004
"13","1-B3","03-","Closed",1,0,"a","No",28852.0831826184,0.004,0.004
"14","1-C3","03-","Closed",1,0,"b","No",31750.3760462881,0.004,0.004
"15","1-D3","03-","Closed",1,0,"c","No",35877.3967170402,0.004,0.004
"16","1-E3","03-","Closed",1,0.03,"a","No",29578.2846374843,0.004,0.004
"17","1-F3","03-","Closed",1,0.03,"b","No",33388.8799033111,0.004,0.004
"18","1-G3","03-","Closed",1,0.03,"c","No",28573.3840042132,0.004,0.004
"19","1-B4","04-","Closed",1,0,"a","Yes",28649.5302562884,0.004,0.004
"20","1-C4","04-","Closed",1,0,"b","Yes",31786.4404810709,0.004,0.004
"21","1-D4","04-","Closed",1,0,"c","Yes",32550.9321777919,0.004,0.004
"22","1-E4","04-","Closed",1,0.03,"a","Yes",31736.2286498197,0.004,0.004
"23","1-F4","04-","Closed",1,0.03,"b","Yes",29514.5927943384,0.004,0.004
"24","1-G4","04-","Closed",1,0.03,"c","Yes",31390.3258001154,0.004,0.004
"25","1-B5","05-","Open",0.5,0,"a","No",72624.4539711312,0.002,0.004
"26","1-C5","05-","Open",0.5,0,"b","No",84809.4230266935,0.002,0.004
"27","1-D5","05-","Open",0.5,0,"c","No",76149.5869536529,0.002,0.004
"28","1-E5","05-","Open",0.5,0.03,"a","No",61004.5930157764,0.002,0.004
"29","1-F5","05-","Open",0.5,0.03,"b","No",56509.2613607631,0.002,0.004
"30","1-G5","05-","Open",0.5,0.03,"c","No",52038.4423148158,0.002,0.004
"31","1-B6","06-","Open",0.5,0,"a","Yes",60318.5423676247,0.002,0.004
"32","1-C6","06-","Open",0.5,0,"b","Yes",56027.1750591525,0.002,0.004
"33","1-D6","06-","Open",0.5,0,"c","Yes",52095.5448190137,0.002,0.004
"34","1-E6","06-","Open",0.5,0.03,"a","Yes",40757.7359808798,0.002,0.004
"35","1-F6","06-","Open",0.5,0.03,"b","Yes",42413.4472415808,0.002,0.004
"36","1-G6","06-","Open",0.5,0.03,"c","Yes",44774.884355198,0.002,0.004
"37","1-B7","07-","Closed",0.5,0,"a","No",24800.1545569617,0.002,0.004
"38","1-C7","07-","Closed",0.5,0,"b","No",20992.0387565769,0.002,0.004
"39","1-D7","07-","Closed",0.5,0,"c","No",20928.2958494685,0.002,0.004
"40","1-E7","07-","Closed",0.5,0.03,"a","No",23774.7119471871,0.002,0.004
"41","1-F7","07-","Closed",0.5,0.03,"b","No",22615.0847538715,0.002,0.004
"42","1-G7","07-","Closed",0.5,0.03,"c","No",22675.5102833208,0.002,0.004
"43","1-B8","08-","Closed",0.5,0,"a","Yes",25429.9586249457,0.002,0.004
"44","1-C8","08-","Closed",0.5,0,"b","Yes",24724.5672231313,0.002,0.004
"45","1-D8","08-","Closed",0.5,0,"c","Yes",21208.2176003196,0.002,0.004
"46","1-E8","08-","Closed",0.5,0.03,"a","Yes",25380.5945898741,0.002,0.004
"47","1-F8","08-","Closed",0.5,0.03,"b","Yes",21328.2868428703,0.002,0.004
"48","1-G8","08-","Closed",0.5,0.03,"c","Yes",20537.2657893624,0.002,0.004
"49","1-B9","09-","Open",0.25,0,"a","No",51047.0720529616,0.001,0.004
"50","1-C9","09-","Open",0.25,0,"b","No",46633.9676274839,0.001,0.004
"51","1-D9","09-","Open",0.25,0,"c","No",48769.7548286725,0.001,0.004
"52","1-E9","09-","Open",0.25,0.03,"a","No",36901.4708352011,0.001,0.004
"53","1-F9","09-","Open",0.25,0.03,"b","No",37201.1181391077,0.001,0.004
"54","1-G9","09-","Open",0.25,0.03,"c","No",40193.1886355112,0.001,0.004
"55","1-B10","10-","Open",0.25,0,"a","Yes",39996.216714431,0.001,0.004
"56","1-C10","10-","Open",0.25,0,"b","Yes",39350.2209098459,0.001,0.004
"57","1-D10","10-","Open",0.25,0,"c","Yes",45425.6556436118,0.001,0.004
"58","1-E10","10-","Open",0.25,0.03,"a","Yes",30856.1977419678,0.001,0.004
"59","1-F10","10-","Open",0.25,0.03,"b","Yes",30237.0760751762,0.001,0.004
"60","1-G10","10-","Open",0.25,0.03,"c","Yes",32133.2844320208,0.001,0.004
"61","1-B11","11-","Closed",0.25,0,"a","No",18410.4249655465,0.001,0.004
"62","1-C11","11-","Closed",0.25,0,"b","No",18294.4462097593,0.001,0.004
"63","1-D11","11-","Closed",0.25,0,"c","No",19123.0493686213,0.001,0.004
"64","1-E11","11-","Closed",0.25,0.03,"a","No",18741.0159403238,0.001,0.004
"65","1-F11","11-","Closed",0.25,0.03,"b","No",23245.039094102,0.001,0.004
"66","1-G11","11-","Closed",0.25,0.03,"c","No",17563.8335056057,0.001,0.004
"67","1-B12","12-","Closed",0.25,0,"a","Yes",19166.019933013,0.001,0.004
"68","1-C12","12-","Closed",0.25,0,"b","Yes",17775.4907226562,0.001,0.004
"69","1-D12","12-","Closed",0.25,0,"c","Yes",20574.3740209463,0.001,0.004
"70","1-E12","12-","Closed",0.25,0.03,"a","Yes",18010.670141705,0.001,0.004
"71","1-F12","12-","Closed",0.25,0.03,"b","Yes",19834.8404279436,0.001,0.004
"72","1-G12","12-","Closed",0.25,0.03,"c","Yes",20550.2214330235,0.001,0.004
